The Grammar of Graphics- V2.0
…
## [1] 344   8

?penguins

Aesthetic Mapping defines how the variables are applied to the plot. So if we were graphing information from penguins, we might map a penguin’s flipper_length_mm to the \(x\) position and body_mass_g to the \(y\) position. We can map variables metaphorically to other things: shape, colour, size, alpha(how dark?)….

For our running example,

penguins %>%
  select(bill_length_mm,body_mass_g) %>%
  rename(x = bill_length_mm,
         y = body_mass_g)

## # A tibble: 344 x 2
##        x     y
##    <dbl> <int>
##  1  39.1  3750
##  2  39.5  3800
##  3  40.3  3250
##  4  NA      NA
##  5  36.7  3450
##  6  39.3  3650
##  7  38.9  3625
##  8  39.2  4675
##  9  34.1  3475
## 10  42    4250
## # … with 334 more rows
…
Statistical transformation

A statistical transformation (stat) transforms the data, generally by summarizing the information. For instance, in a bar graph you might summarize the data by graphing the total number of observations within a set of categories.

A stat is a function that takes in a dataset as the input and returns a dataset as the output; a stat can add new variables to the original dataset, or create an entirely new dataset. So instead of graphing this data in its raw form:

penguins %>%
  select(island)

## # A tibble: 344 x 1
##    island   
##    <fct>    
##  1 Torgersen
##  2 Torgersen
##  3 Torgersen
##  4 Torgersen
##  5 Torgersen
##  6 Torgersen
##  7 Torgersen
##  8 Torgersen
##  9 Torgersen
## 10 Torgersen
## # … with 334 more rows
…
