Networks as Metaphors
…
starwars_edges <- read_csv("./Data/star-wars-network-edges.csv")

## 
## ── Column specification ────────────────────────────────────────────────────────
## cols(
##   source = col_character(),
##   target = col_character(),
##   weight = col_double()
## )

#

starwars_nodes

## # A tibble: 22 x 2
##    name           id
##    <chr>       <dbl>
##  1 R2-D2           0
##  2 CHEWBACCA       1
##  3 C-3PO           2
##  4 LUKE            3
##  5 DARTH VADER     4
##  6 CAMIE           5
##  7 BIGGS           6
##  8 LEIA            7
##  9 BERU            8
## 10 OWEN            9
## # … with 12 more rows

starwars_edges

## # A tibble: 60 x 3
##    source    target    weight
##    <chr>     <chr>      <dbl>
##  1 C-3PO     R2-D2         17
##  2 LUKE      R2-D2         13
##  3 OBI-WAN   R2-D2          6
##  4 LEIA      R2-D2          5
##  5 HAN       R2-D2          5
##  6 CHEWBACCA R2-D2          3
##  7 DODONNA   R2-D2          1
##  8 CHEWBACCA OBI-WAN        7
##  9 C-3PO     CHEWBACCA      5
## 10 CHEWBACCA LUKE          16
## # … with 50 more rows
…
